%YAML 1.1
%TAG !u! tag:unity3d.com,2011:
--- !u!114 &11400000
MonoBehaviour:
  m_ObjectHideFlags: 0
  m_CorrespondingSourceObject: {fileID: 0}
  m_PrefabInstance: {fileID: 0}
  m_PrefabAsset: {fileID: 0}
  m_GameObject: {fileID: 0}
  m_Enabled: 1
  m_EditorHideFlags: 0
  m_Script: {fileID: 11500000, guid: aeb6ee5ebae2b479aad76ae4f0621500, type: 3}
  m_Name: ChestNodesDB
  m_EditorClassIdentifier: 
  _db:
    m_keys:
    - 58a13d1a-80ff-4140-b101-60860e5a2d54
    m_values:
    - Name:
        Key: Wooden chest
      Description:
        Key: contain some items
      Icon: {fileID: 21300000, guid: 9ed5c5bd26de947b091a21174e33f816, type: 3}
      Loots:
      - ItemId: db801738-3bb6-4992-a094-4cb2cab056fd
        QuantityMin: 1
        QuantityMax: 1
        Chance: 100
      - ItemId: 68b9fb57-fa69-4d6c-90c0-8ca9b425cc39
        QuantityMin: 1
        QuantityMax: 1
        Chance: 15
      ReferencePrefab:
        m_AssetGUID: 
        m_SubObjectName: 
      Prefab: {fileID: 927331186997692488, guid: e565a88b3b09e449c9faf66a0fabb900,
        type: 3}
      OpenSound: {fileID: 0}
      CloseSound: {fileID: 0}
