%YAML 1.1
%TAG !u! tag:unity3d.com,2011:
--- !u!114 &11400000
MonoBehaviour:
  m_ObjectHideFlags: 0
  m_CorrespondingSourceObject: {fileID: 0}
  m_PrefabInstance: {fileID: 0}
  m_PrefabAsset: {fileID: 0}
  m_GameObject: {fileID: 0}
  m_Enabled: 1
  m_EditorHideFlags: 0
  m_Script: {fileID: 11500000, guid: 693462f5702674d5287bcd7d29acc1c5, type: 3}
  m_Name: ItemsDb
  m_EditorClassIdentifier: 
  _db:
    m_keys:
    - 1f2ed9d5-57bf-46ec-a6cc-9adfaca3f45c
    - e33b349d-2be3-4f42-a589-350b753612ec
    - db801738-3bb6-4992-a094-4cb2cab056fd
    - 68b9fb57-fa69-4d6c-90c0-8ca9b425cc39
    m_values:
    - {fileID: 11400000, guid: 03f6f99628ef54010a0c99b04f96210f, type: 2}
    - {fileID: 11400000, guid: 62daf3a29e6ac4a1cb073a9653477ac9, type: 2}
    - {fileID: 11400000, guid: d8bafbb8263e0456598bf623bcdf5cf7, type: 2}
    - {fileID: 11400000, guid: b2c8f816ba9454f068595b98b969d88d, type: 2}
