%YAML 1.1
%TAG !u! tag:unity3d.com,2011:
--- !u!114 &11400000
MonoBehaviour:
  m_ObjectHideFlags: 0
  m_CorrespondingSourceObject: {fileID: 0}
  m_PrefabInstance: {fileID: 0}
  m_PrefabAsset: {fileID: 0}
  m_GameObject: {fileID: 0}
  m_Enabled: 1
  m_EditorHideFlags: 0
  m_Script: {fileID: 11500000, guid: 1f15de5139d3f481daa8fb66336589c3, type: 3}
  m_Name: item_ConsumableItemModel_5e97cd33-4556-4dec-915b-5d1fdd5c570f
  m_EditorClassIdentifier: 
  Name:
    Key: Health potion
  Description:
    Key: description
  Icon: {fileID: 21300000, guid: 7c14a8981cb194074acf4526a454d842, type: 3}
  RarityKey: 87232d47-d561-4845-ae75-1f2c40a9f3b9
  CategoryKey: c0889d13-428d-4efa-93f1-ef1d385f4c98
  MaxStackSize: 1
