%YAML 1.1
%TAG !u! tag:unity3d.com,2011:
--- !u!1 &197420
GameObject:
  m_ObjectHideFlags: 0
  m_CorrespondingSourceObject: {fileID: 0}
  m_PrefabInstance: {fileID: 0}
  m_PrefabAsset: {fileID: 0}
  serializedVersion: 6
  m_Component:
  - component: {fileID: 447046}
  - component: {fileID: 14317122}
  - component: {fileID: 195498936133656436}
  - component: {fileID: 7866212942563774531}
  - component: {fileID: 1355625331467447637}
  - component: {fileID: 4921186975680945660}
  - component: {fileID: -6467537332028179657}
  - component: {fileID: 4898612364011411843}
  m_Layer: 9
  m_Name: Beta
  m_TagString: Player
  m_Icon: {fileID: 0}
  m_NavMeshLayer: 0
  m_StaticEditorFlags: 0
  m_IsActive: 1
--- !u!4 &447046
Transform:
  m_ObjectHideFlags: 0
  m_CorrespondingSourceObject: {fileID: 0}
  m_PrefabInstance: {fileID: 0}
  m_PrefabAsset: {fileID: 0}
  m_GameObject: {fileID: 197420}
  m_LocalRotation: {x: 0, y: 0, z: 0, w: 1}
  m_LocalPosition: {x: 0, y: 0, z: -9.65}
  m_LocalScale: {x: 1, y: 1, z: 1}
  m_Children:
  - {fileID: 4513261483776282189}
  m_Father: {fileID: 0}
  m_RootOrder: 0
  m_LocalEulerAnglesHint: {x: 0, y: 0, z: 0}
--- !u!143 &14317122
CharacterController:
  m_ObjectHideFlags: 0
  m_CorrespondingSourceObject: {fileID: 0}
  m_PrefabInstance: {fileID: 0}
  m_PrefabAsset: {fileID: 0}
  m_GameObject: {fileID: 197420}
  m_Material: {fileID: 0}
  m_IsTrigger: 0
  m_Enabled: 1
  serializedVersion: 2
  m_Height: 2
  m_Radius: 0.5
  m_SlopeLimit: 45
  m_StepOffset: 0.3
  m_SkinWidth: 0.05
  m_MinMoveDistance: 0
  m_Center: {x: 0, y: 1.05, z: 0}
--- !u!195 &195498936133656436
NavMeshAgent:
  m_ObjectHideFlags: 0
  m_CorrespondingSourceObject: {fileID: 0}
  m_PrefabInstance: {fileID: 0}
  m_PrefabAsset: {fileID: 0}
  m_GameObject: {fileID: 197420}
  m_Enabled: 0
  m_AgentTypeID: 0
  m_Radius: 0.5
  m_Speed: 2
  m_Acceleration: 4
  avoidancePriority: 50
  m_AngularSpeed: 55
  m_StoppingDistance: 3
  m_AutoTraverseOffMeshLink: 1
  m_AutoBraking: 1
  m_AutoRepath: 1
  m_Height: 2
  m_BaseOffset: 0
  m_WalkableMask: 4294967295
  m_ObstacleAvoidanceType: 4
--- !u!114 &7866212942563774531
MonoBehaviour:
  m_ObjectHideFlags: 0
  m_CorrespondingSourceObject: {fileID: 0}
  m_PrefabInstance: {fileID: 0}
  m_PrefabAsset: {fileID: 0}
  m_GameObject: {fileID: 197420}
  m_Enabled: 1
  m_EditorHideFlags: 0
  m_Script: {fileID: 11500000, guid: 526cdf1baba6241abb563dd121e21c69, type: 3}
  m_Name: 
  m_EditorClassIdentifier: 
  _inputHandler: {fileID: 4921186975680945660}
  _characterVisual: {fileID: 4513261483763113705}
--- !u!114 &1355625331467447637
MonoBehaviour:
  m_ObjectHideFlags: 0
  m_CorrespondingSourceObject: {fileID: 0}
  m_PrefabInstance: {fileID: 0}
  m_PrefabAsset: {fileID: 0}
  m_GameObject: {fileID: 197420}
  m_Enabled: 1
  m_EditorHideFlags: 0
  m_Script: {fileID: 11500000, guid: d87033a84d1aa44acb96d46ab647eb22, type: 3}
  m_Name: 
  m_EditorClassIdentifier: 
  _movementSettings:
    _acceleration: 10
    _walkSpeed: 2
    _jogSpeed: 4
    _sprintSpeed: 6
    _jumpForce: 10
  _gravitySettings:
    gravityStrength: 27
    maxFallSpeed: 38
    groundedGravityForce: 9
  _rotationSettings:
    _rotationSmoothing: 15
    _freeMode: 1
  _input: {fileID: 0}
--- !u!114 &4921186975680945660
MonoBehaviour:
  m_ObjectHideFlags: 0
  m_CorrespondingSourceObject: {fileID: 0}
  m_PrefabInstance: {fileID: 0}
  m_PrefabAsset: {fileID: 0}
  m_GameObject: {fileID: 197420}
  m_Enabled: 1
  m_EditorHideFlags: 0
  m_Script: {fileID: 11500000, guid: 10297d2713d3345b5a169531455c804b, type: 3}
  m_Name: 
  m_EditorClassIdentifier: 
  characterControl: {fileID: 1355625331467447637}
  _aiInput: {fileID: -6467537332028179657}
--- !u!114 &-6467537332028179657
MonoBehaviour:
  m_ObjectHideFlags: 0
  m_CorrespondingSourceObject: {fileID: 0}
  m_PrefabInstance: {fileID: 0}
  m_PrefabAsset: {fileID: 0}
  m_GameObject: {fileID: 197420}
  m_Enabled: 1
  m_EditorHideFlags: 0
  m_Script: {fileID: 11500000, guid: 87f17a1a2320649cb9bc728764c1602a, type: 3}
  m_Name: 
  m_EditorClassIdentifier: 
  _agent: {fileID: 195498936133656436}
  _target: {fileID: 0}
--- !u!114 &4898612364011411843
MonoBehaviour:
  m_ObjectHideFlags: 0
  m_CorrespondingSourceObject: {fileID: 0}
  m_PrefabInstance: {fileID: 0}
  m_PrefabAsset: {fileID: 0}
  m_GameObject: {fileID: 197420}
  m_Enabled: 1
  m_EditorHideFlags: 0
  m_Script: {fileID: 11500000, guid: 6fc9d87f2260d47b895850fac9514cf1, type: 3}
  m_Name: 
  m_EditorClassIdentifier: 
--- !u!1001 &4513261483776677193
PrefabInstance:
  m_ObjectHideFlags: 0
  serializedVersion: 2
  m_Modification:
    m_TransformParent: {fileID: 447046}
    m_Modifications:
    - target: {fileID: 100132, guid: 6a9b02769a490473192101ccb6db81db, type: 3}
      propertyPath: m_Name
      value: passive_marker_man
      objectReference: {fileID: 0}
    - target: {fileID: 100132, guid: 6a9b02769a490473192101ccb6db81db, type: 3}
      propertyPath: m_Layer
      value: 9
      objectReference: {fileID: 0}
    - target: {fileID: 100006, guid: 6a9b02769a490473192101ccb6db81db, type: 3}
      propertyPath: m_Layer
      value: 9
      objectReference: {fileID: 0}
    - target: {fileID: 100124, guid: 6a9b02769a490473192101ccb6db81db, type: 3}
      propertyPath: m_Layer
      value: 9
      objectReference: {fileID: 0}
    - target: {fileID: 400132, guid: 6a9b02769a490473192101ccb6db81db, type: 3}
      propertyPath: m_LocalPosition.x
      value: 0
      objectReference: {fileID: 0}
    - target: {fileID: 400132, guid: 6a9b02769a490473192101ccb6db81db, type: 3}
      propertyPath: m_LocalPosition.y
      value: 0
      objectReference: {fileID: 0}
    - target: {fileID: 400132, guid: 6a9b02769a490473192101ccb6db81db, type: 3}
      propertyPath: m_LocalPosition.z
      value: 0
      objectReference: {fileID: 0}
    - target: {fileID: 400132, guid: 6a9b02769a490473192101ccb6db81db, type: 3}
      propertyPath: m_LocalRotation.x
      value: -0
      objectReference: {fileID: 0}
    - target: {fileID: 400132, guid: 6a9b02769a490473192101ccb6db81db, type: 3}
      propertyPath: m_LocalRotation.y
      value: -0
      objectReference: {fileID: 0}
    - target: {fileID: 400132, guid: 6a9b02769a490473192101ccb6db81db, type: 3}
      propertyPath: m_LocalRotation.z
      value: -0
      objectReference: {fileID: 0}
    - target: {fileID: 400132, guid: 6a9b02769a490473192101ccb6db81db, type: 3}
      propertyPath: m_LocalRotation.w
      value: 1
      objectReference: {fileID: 0}
    - target: {fileID: 400132, guid: 6a9b02769a490473192101ccb6db81db, type: 3}
      propertyPath: m_RootOrder
      value: 0
      objectReference: {fileID: 0}
    - target: {fileID: 400132, guid: 6a9b02769a490473192101ccb6db81db, type: 3}
      propertyPath: m_LocalEulerAnglesHint.x
      value: 0
      objectReference: {fileID: 0}
    - target: {fileID: 400132, guid: 6a9b02769a490473192101ccb6db81db, type: 3}
      propertyPath: m_LocalEulerAnglesHint.y
      value: 0
      objectReference: {fileID: 0}
    - target: {fileID: 400132, guid: 6a9b02769a490473192101ccb6db81db, type: 3}
      propertyPath: m_LocalEulerAnglesHint.z
      value: 0
      objectReference: {fileID: 0}
    - target: {fileID: 100112, guid: 6a9b02769a490473192101ccb6db81db, type: 3}
      propertyPath: m_Layer
      value: 9
      objectReference: {fileID: 0}
    - target: {fileID: 9500000, guid: 6a9b02769a490473192101ccb6db81db, type: 3}
      propertyPath: m_Controller
      value: 
      objectReference: {fileID: 9100000, guid: fe6513db819f8b943a6a3aa4a51d31d5, type: 2}
    - target: {fileID: 9500000, guid: 6a9b02769a490473192101ccb6db81db, type: 3}
      propertyPath: m_ApplyRootMotion
      value: 0
      objectReference: {fileID: 0}
    - target: {fileID: 100102, guid: 6a9b02769a490473192101ccb6db81db, type: 3}
      propertyPath: m_Layer
      value: 9
      objectReference: {fileID: 0}
    - target: {fileID: 100120, guid: 6a9b02769a490473192101ccb6db81db, type: 3}
      propertyPath: m_Layer
      value: 9
      objectReference: {fileID: 0}
    - target: {fileID: 100122, guid: 6a9b02769a490473192101ccb6db81db, type: 3}
      propertyPath: m_Layer
      value: 9
      objectReference: {fileID: 0}
    - target: {fileID: 100126, guid: 6a9b02769a490473192101ccb6db81db, type: 3}
      propertyPath: m_Layer
      value: 9
      objectReference: {fileID: 0}
    - target: {fileID: 100114, guid: 6a9b02769a490473192101ccb6db81db, type: 3}
      propertyPath: m_Layer
      value: 9
      objectReference: {fileID: 0}
    - target: {fileID: 100116, guid: 6a9b02769a490473192101ccb6db81db, type: 3}
      propertyPath: m_Layer
      value: 9
      objectReference: {fileID: 0}
    - target: {fileID: 100118, guid: 6a9b02769a490473192101ccb6db81db, type: 3}
      propertyPath: m_Layer
      value: 9
      objectReference: {fileID: 0}
    - target: {fileID: 100226, guid: 6a9b02769a490473192101ccb6db81db, type: 3}
      propertyPath: m_Layer
      value: 9
      objectReference: {fileID: 0}
    - target: {fileID: 100230, guid: 6a9b02769a490473192101ccb6db81db, type: 3}
      propertyPath: m_Layer
      value: 9
      objectReference: {fileID: 0}
    - target: {fileID: 100218, guid: 6a9b02769a490473192101ccb6db81db, type: 3}
      propertyPath: m_Layer
      value: 9
      objectReference: {fileID: 0}
    - target: {fileID: 100096, guid: 6a9b02769a490473192101ccb6db81db, type: 3}
      propertyPath: m_Layer
      value: 9
      objectReference: {fileID: 0}
    - target: {fileID: 100232, guid: 6a9b02769a490473192101ccb6db81db, type: 3}
      propertyPath: m_Layer
      value: 9
      objectReference: {fileID: 0}
    - target: {fileID: 100170, guid: 6a9b02769a490473192101ccb6db81db, type: 3}
      propertyPath: m_Layer
      value: 9
      objectReference: {fileID: 0}
    - target: {fileID: 100234, guid: 6a9b02769a490473192101ccb6db81db, type: 3}
      propertyPath: m_Layer
      value: 9
      objectReference: {fileID: 0}
    - target: {fileID: 100048, guid: 6a9b02769a490473192101ccb6db81db, type: 3}
      propertyPath: m_Layer
      value: 9
      objectReference: {fileID: 0}
    - target: {fileID: 100222, guid: 6a9b02769a490473192101ccb6db81db, type: 3}
      propertyPath: m_Layer
      value: 9
      objectReference: {fileID: 0}
    - target: {fileID: 100098, guid: 6a9b02769a490473192101ccb6db81db, type: 3}
      propertyPath: m_Layer
      value: 9
      objectReference: {fileID: 0}
    - target: {fileID: 100100, guid: 6a9b02769a490473192101ccb6db81db, type: 3}
      propertyPath: m_Layer
      value: 9
      objectReference: {fileID: 0}
    - target: {fileID: 100128, guid: 6a9b02769a490473192101ccb6db81db, type: 3}
      propertyPath: m_Layer
      value: 9
      objectReference: {fileID: 0}
    - target: {fileID: 100224, guid: 6a9b02769a490473192101ccb6db81db, type: 3}
      propertyPath: m_Layer
      value: 9
      objectReference: {fileID: 0}
    - target: {fileID: 100168, guid: 6a9b02769a490473192101ccb6db81db, type: 3}
      propertyPath: m_Layer
      value: 9
      objectReference: {fileID: 0}
    - target: {fileID: 100172, guid: 6a9b02769a490473192101ccb6db81db, type: 3}
      propertyPath: m_Layer
      value: 9
      objectReference: {fileID: 0}
    - target: {fileID: 100130, guid: 6a9b02769a490473192101ccb6db81db, type: 3}
      propertyPath: m_Layer
      value: 9
      objectReference: {fileID: 0}
    - target: {fileID: 100046, guid: 6a9b02769a490473192101ccb6db81db, type: 3}
      propertyPath: m_Layer
      value: 9
      objectReference: {fileID: 0}
    - target: {fileID: 100050, guid: 6a9b02769a490473192101ccb6db81db, type: 3}
      propertyPath: m_Layer
      value: 9
      objectReference: {fileID: 0}
    - target: {fileID: 100174, guid: 6a9b02769a490473192101ccb6db81db, type: 3}
      propertyPath: m_Layer
      value: 9
      objectReference: {fileID: 0}
    - target: {fileID: 100236, guid: 6a9b02769a490473192101ccb6db81db, type: 3}
      propertyPath: m_Layer
      value: 9
      objectReference: {fileID: 0}
    - target: {fileID: 100052, guid: 6a9b02769a490473192101ccb6db81db, type: 3}
      propertyPath: m_Layer
      value: 9
      objectReference: {fileID: 0}
    - target: {fileID: 100002, guid: 6a9b02769a490473192101ccb6db81db, type: 3}
      propertyPath: m_Layer
      value: 9
      objectReference: {fileID: 0}
    - target: {fileID: 100160, guid: 6a9b02769a490473192101ccb6db81db, type: 3}
      propertyPath: m_Layer
      value: 9
      objectReference: {fileID: 0}
    - target: {fileID: 100162, guid: 6a9b02769a490473192101ccb6db81db, type: 3}
      propertyPath: m_Layer
      value: 9
      objectReference: {fileID: 0}
    - target: {fileID: 100164, guid: 6a9b02769a490473192101ccb6db81db, type: 3}
      propertyPath: m_Layer
      value: 9
      objectReference: {fileID: 0}
    - target: {fileID: 100166, guid: 6a9b02769a490473192101ccb6db81db, type: 3}
      propertyPath: m_Layer
      value: 9
      objectReference: {fileID: 0}
    - target: {fileID: 100176, guid: 6a9b02769a490473192101ccb6db81db, type: 3}
      propertyPath: m_Layer
      value: 9
      objectReference: {fileID: 0}
    - target: {fileID: 100220, guid: 6a9b02769a490473192101ccb6db81db, type: 3}
      propertyPath: m_Layer
      value: 9
      objectReference: {fileID: 0}
    - target: {fileID: 100104, guid: 6a9b02769a490473192101ccb6db81db, type: 3}
      propertyPath: m_Layer
      value: 9
      objectReference: {fileID: 0}
    - target: {fileID: 100106, guid: 6a9b02769a490473192101ccb6db81db, type: 3}
      propertyPath: m_Layer
      value: 9
      objectReference: {fileID: 0}
    - target: {fileID: 100110, guid: 6a9b02769a490473192101ccb6db81db, type: 3}
      propertyPath: m_Layer
      value: 9
      objectReference: {fileID: 0}
    - target: {fileID: 100136, guid: 6a9b02769a490473192101ccb6db81db, type: 3}
      propertyPath: m_Layer
      value: 9
      objectReference: {fileID: 0}
    - target: {fileID: 100138, guid: 6a9b02769a490473192101ccb6db81db, type: 3}
      propertyPath: m_Layer
      value: 9
      objectReference: {fileID: 0}
    - target: {fileID: 100140, guid: 6a9b02769a490473192101ccb6db81db, type: 3}
      propertyPath: m_Layer
      value: 9
      objectReference: {fileID: 0}
    - target: {fileID: 100142, guid: 6a9b02769a490473192101ccb6db81db, type: 3}
      propertyPath: m_Layer
      value: 9
      objectReference: {fileID: 0}
    - target: {fileID: 100134, guid: 6a9b02769a490473192101ccb6db81db, type: 3}
      propertyPath: m_Layer
      value: 9
      objectReference: {fileID: 0}
    - target: {fileID: 100152, guid: 6a9b02769a490473192101ccb6db81db, type: 3}
      propertyPath: m_Layer
      value: 9
      objectReference: {fileID: 0}
    - target: {fileID: 100154, guid: 6a9b02769a490473192101ccb6db81db, type: 3}
      propertyPath: m_Layer
      value: 9
      objectReference: {fileID: 0}
    - target: {fileID: 100156, guid: 6a9b02769a490473192101ccb6db81db, type: 3}
      propertyPath: m_Layer
      value: 9
      objectReference: {fileID: 0}
    - target: {fileID: 100158, guid: 6a9b02769a490473192101ccb6db81db, type: 3}
      propertyPath: m_Layer
      value: 9
      objectReference: {fileID: 0}
    - target: {fileID: 100144, guid: 6a9b02769a490473192101ccb6db81db, type: 3}
      propertyPath: m_Layer
      value: 9
      objectReference: {fileID: 0}
    - target: {fileID: 100150, guid: 6a9b02769a490473192101ccb6db81db, type: 3}
      propertyPath: m_Layer
      value: 9
      objectReference: {fileID: 0}
    - target: {fileID: 100228, guid: 6a9b02769a490473192101ccb6db81db, type: 3}
      propertyPath: m_Layer
      value: 9
      objectReference: {fileID: 0}
    - target: {fileID: 100040, guid: 6a9b02769a490473192101ccb6db81db, type: 3}
      propertyPath: m_Layer
      value: 9
      objectReference: {fileID: 0}
    - target: {fileID: 100042, guid: 6a9b02769a490473192101ccb6db81db, type: 3}
      propertyPath: m_Layer
      value: 9
      objectReference: {fileID: 0}
    - target: {fileID: 100044, guid: 6a9b02769a490473192101ccb6db81db, type: 3}
      propertyPath: m_Layer
      value: 9
      objectReference: {fileID: 0}
    - target: {fileID: 100032, guid: 6a9b02769a490473192101ccb6db81db, type: 3}
      propertyPath: m_Layer
      value: 9
      objectReference: {fileID: 0}
    - target: {fileID: 100034, guid: 6a9b02769a490473192101ccb6db81db, type: 3}
      propertyPath: m_Layer
      value: 9
      objectReference: {fileID: 0}
    - target: {fileID: 100036, guid: 6a9b02769a490473192101ccb6db81db, type: 3}
      propertyPath: m_Layer
      value: 9
      objectReference: {fileID: 0}
    - target: {fileID: 100038, guid: 6a9b02769a490473192101ccb6db81db, type: 3}
      propertyPath: m_Layer
      value: 9
      objectReference: {fileID: 0}
    - target: {fileID: 100054, guid: 6a9b02769a490473192101ccb6db81db, type: 3}
      propertyPath: m_Layer
      value: 9
      objectReference: {fileID: 0}
    - target: {fileID: 100008, guid: 6a9b02769a490473192101ccb6db81db, type: 3}
      propertyPath: m_Layer
      value: 9
      objectReference: {fileID: 0}
    - target: {fileID: 100010, guid: 6a9b02769a490473192101ccb6db81db, type: 3}
      propertyPath: m_Layer
      value: 9
      objectReference: {fileID: 0}
    - target: {fileID: 100012, guid: 6a9b02769a490473192101ccb6db81db, type: 3}
      propertyPath: m_Layer
      value: 9
      objectReference: {fileID: 0}
    - target: {fileID: 100014, guid: 6a9b02769a490473192101ccb6db81db, type: 3}
      propertyPath: m_Layer
      value: 9
      objectReference: {fileID: 0}
    - target: {fileID: 100004, guid: 6a9b02769a490473192101ccb6db81db, type: 3}
      propertyPath: m_Layer
      value: 9
      objectReference: {fileID: 0}
    - target: {fileID: 100024, guid: 6a9b02769a490473192101ccb6db81db, type: 3}
      propertyPath: m_Layer
      value: 9
      objectReference: {fileID: 0}
    - target: {fileID: 100026, guid: 6a9b02769a490473192101ccb6db81db, type: 3}
      propertyPath: m_Layer
      value: 9
      objectReference: {fileID: 0}
    - target: {fileID: 100016, guid: 6a9b02769a490473192101ccb6db81db, type: 3}
      propertyPath: m_Layer
      value: 9
      objectReference: {fileID: 0}
    - target: {fileID: 100018, guid: 6a9b02769a490473192101ccb6db81db, type: 3}
      propertyPath: m_Layer
      value: 9
      objectReference: {fileID: 0}
    - target: {fileID: 100020, guid: 6a9b02769a490473192101ccb6db81db, type: 3}
      propertyPath: m_Layer
      value: 9
      objectReference: {fileID: 0}
    - target: {fileID: 100022, guid: 6a9b02769a490473192101ccb6db81db, type: 3}
      propertyPath: m_Layer
      value: 9
      objectReference: {fileID: 0}
    - target: {fileID: 100186, guid: 6a9b02769a490473192101ccb6db81db, type: 3}
      propertyPath: m_Layer
      value: 9
      objectReference: {fileID: 0}
    - target: {fileID: 100178, guid: 6a9b02769a490473192101ccb6db81db, type: 3}
      propertyPath: m_Layer
      value: 9
      objectReference: {fileID: 0}
    - target: {fileID: 100202, guid: 6a9b02769a490473192101ccb6db81db, type: 3}
      propertyPath: m_Layer
      value: 9
      objectReference: {fileID: 0}
    - target: {fileID: 100194, guid: 6a9b02769a490473192101ccb6db81db, type: 3}
      propertyPath: m_Layer
      value: 9
      objectReference: {fileID: 0}
    - target: {fileID: 100210, guid: 6a9b02769a490473192101ccb6db81db, type: 3}
      propertyPath: m_Layer
      value: 9
      objectReference: {fileID: 0}
    - target: {fileID: 100108, guid: 6a9b02769a490473192101ccb6db81db, type: 3}
      propertyPath: m_Layer
      value: 9
      objectReference: {fileID: 0}
    - target: {fileID: 100146, guid: 6a9b02769a490473192101ccb6db81db, type: 3}
      propertyPath: m_Layer
      value: 9
      objectReference: {fileID: 0}
    - target: {fileID: 100148, guid: 6a9b02769a490473192101ccb6db81db, type: 3}
      propertyPath: m_Layer
      value: 9
      objectReference: {fileID: 0}
    - target: {fileID: 100238, guid: 6a9b02769a490473192101ccb6db81db, type: 3}
      propertyPath: m_Layer
      value: 9
      objectReference: {fileID: 0}
    - target: {fileID: 100056, guid: 6a9b02769a490473192101ccb6db81db, type: 3}
      propertyPath: m_Layer
      value: 9
      objectReference: {fileID: 0}
    - target: {fileID: 100072, guid: 6a9b02769a490473192101ccb6db81db, type: 3}
      propertyPath: m_Layer
      value: 9
      objectReference: {fileID: 0}
    - target: {fileID: 100064, guid: 6a9b02769a490473192101ccb6db81db, type: 3}
      propertyPath: m_Layer
      value: 9
      objectReference: {fileID: 0}
    - target: {fileID: 100088, guid: 6a9b02769a490473192101ccb6db81db, type: 3}
      propertyPath: m_Layer
      value: 9
      objectReference: {fileID: 0}
    - target: {fileID: 100080, guid: 6a9b02769a490473192101ccb6db81db, type: 3}
      propertyPath: m_Layer
      value: 9
      objectReference: {fileID: 0}
    - target: {fileID: 100000, guid: 6a9b02769a490473192101ccb6db81db, type: 3}
      propertyPath: m_Layer
      value: 9
      objectReference: {fileID: 0}
    - target: {fileID: 100028, guid: 6a9b02769a490473192101ccb6db81db, type: 3}
      propertyPath: m_Layer
      value: 9
      objectReference: {fileID: 0}
    - target: {fileID: 100030, guid: 6a9b02769a490473192101ccb6db81db, type: 3}
      propertyPath: m_Layer
      value: 9
      objectReference: {fileID: 0}
    - target: {fileID: 100188, guid: 6a9b02769a490473192101ccb6db81db, type: 3}
      propertyPath: m_Layer
      value: 9
      objectReference: {fileID: 0}
    - target: {fileID: 100180, guid: 6a9b02769a490473192101ccb6db81db, type: 3}
      propertyPath: m_Layer
      value: 9
      objectReference: {fileID: 0}
    - target: {fileID: 100204, guid: 6a9b02769a490473192101ccb6db81db, type: 3}
      propertyPath: m_Layer
      value: 9
      objectReference: {fileID: 0}
    - target: {fileID: 100196, guid: 6a9b02769a490473192101ccb6db81db, type: 3}
      propertyPath: m_Layer
      value: 9
      objectReference: {fileID: 0}
    - target: {fileID: 100212, guid: 6a9b02769a490473192101ccb6db81db, type: 3}
      propertyPath: m_Layer
      value: 9
      objectReference: {fileID: 0}
    - target: {fileID: 100240, guid: 6a9b02769a490473192101ccb6db81db, type: 3}
      propertyPath: m_Layer
      value: 9
      objectReference: {fileID: 0}
    - target: {fileID: 100058, guid: 6a9b02769a490473192101ccb6db81db, type: 3}
      propertyPath: m_Layer
      value: 9
      objectReference: {fileID: 0}
    - target: {fileID: 100074, guid: 6a9b02769a490473192101ccb6db81db, type: 3}
      propertyPath: m_Layer
      value: 9
      objectReference: {fileID: 0}
    - target: {fileID: 100066, guid: 6a9b02769a490473192101ccb6db81db, type: 3}
      propertyPath: m_Layer
      value: 9
      objectReference: {fileID: 0}
    - target: {fileID: 100090, guid: 6a9b02769a490473192101ccb6db81db, type: 3}
      propertyPath: m_Layer
      value: 9
      objectReference: {fileID: 0}
    - target: {fileID: 100082, guid: 6a9b02769a490473192101ccb6db81db, type: 3}
      propertyPath: m_Layer
      value: 9
      objectReference: {fileID: 0}
    - target: {fileID: 100190, guid: 6a9b02769a490473192101ccb6db81db, type: 3}
      propertyPath: m_Layer
      value: 9
      objectReference: {fileID: 0}
    - target: {fileID: 100182, guid: 6a9b02769a490473192101ccb6db81db, type: 3}
      propertyPath: m_Layer
      value: 9
      objectReference: {fileID: 0}
    - target: {fileID: 100206, guid: 6a9b02769a490473192101ccb6db81db, type: 3}
      propertyPath: m_Layer
      value: 9
      objectReference: {fileID: 0}
    - target: {fileID: 100198, guid: 6a9b02769a490473192101ccb6db81db, type: 3}
      propertyPath: m_Layer
      value: 9
      objectReference: {fileID: 0}
    - target: {fileID: 100214, guid: 6a9b02769a490473192101ccb6db81db, type: 3}
      propertyPath: m_Layer
      value: 9
      objectReference: {fileID: 0}
    - target: {fileID: 100242, guid: 6a9b02769a490473192101ccb6db81db, type: 3}
      propertyPath: m_Layer
      value: 9
      objectReference: {fileID: 0}
    - target: {fileID: 100060, guid: 6a9b02769a490473192101ccb6db81db, type: 3}
      propertyPath: m_Layer
      value: 9
      objectReference: {fileID: 0}
    - target: {fileID: 100076, guid: 6a9b02769a490473192101ccb6db81db, type: 3}
      propertyPath: m_Layer
      value: 9
      objectReference: {fileID: 0}
    - target: {fileID: 100068, guid: 6a9b02769a490473192101ccb6db81db, type: 3}
      propertyPath: m_Layer
      value: 9
      objectReference: {fileID: 0}
    - target: {fileID: 100092, guid: 6a9b02769a490473192101ccb6db81db, type: 3}
      propertyPath: m_Layer
      value: 9
      objectReference: {fileID: 0}
    - target: {fileID: 100084, guid: 6a9b02769a490473192101ccb6db81db, type: 3}
      propertyPath: m_Layer
      value: 9
      objectReference: {fileID: 0}
    - target: {fileID: 100184, guid: 6a9b02769a490473192101ccb6db81db, type: 3}
      propertyPath: m_Layer
      value: 9
      objectReference: {fileID: 0}
    - target: {fileID: 100200, guid: 6a9b02769a490473192101ccb6db81db, type: 3}
      propertyPath: m_Layer
      value: 9
      objectReference: {fileID: 0}
    - target: {fileID: 100192, guid: 6a9b02769a490473192101ccb6db81db, type: 3}
      propertyPath: m_Layer
      value: 9
      objectReference: {fileID: 0}
    - target: {fileID: 100216, guid: 6a9b02769a490473192101ccb6db81db, type: 3}
      propertyPath: m_Layer
      value: 9
      objectReference: {fileID: 0}
    - target: {fileID: 100208, guid: 6a9b02769a490473192101ccb6db81db, type: 3}
      propertyPath: m_Layer
      value: 9
      objectReference: {fileID: 0}
    - target: {fileID: 100062, guid: 6a9b02769a490473192101ccb6db81db, type: 3}
      propertyPath: m_Layer
      value: 9
      objectReference: {fileID: 0}
    - target: {fileID: 100078, guid: 6a9b02769a490473192101ccb6db81db, type: 3}
      propertyPath: m_Layer
      value: 9
      objectReference: {fileID: 0}
    - target: {fileID: 100070, guid: 6a9b02769a490473192101ccb6db81db, type: 3}
      propertyPath: m_Layer
      value: 9
      objectReference: {fileID: 0}
    - target: {fileID: 100094, guid: 6a9b02769a490473192101ccb6db81db, type: 3}
      propertyPath: m_Layer
      value: 9
      objectReference: {fileID: 0}
    - target: {fileID: 100086, guid: 6a9b02769a490473192101ccb6db81db, type: 3}
      propertyPath: m_Layer
      value: 9
      objectReference: {fileID: 0}
    m_RemovedComponents: []
  m_SourcePrefab: {fileID: 100100000, guid: 6a9b02769a490473192101ccb6db81db, type: 3}
--- !u!4 &4513261483776282189 stripped
Transform:
  m_CorrespondingSourceObject: {fileID: 400132, guid: 6a9b02769a490473192101ccb6db81db,
    type: 3}
  m_PrefabInstance: {fileID: 4513261483776677193}
  m_PrefabAsset: {fileID: 0}
--- !u!137 &4513261483763113705 stripped
SkinnedMeshRenderer:
  m_CorrespondingSourceObject: {fileID: 13700000, guid: 6a9b02769a490473192101ccb6db81db,
    type: 3}
  m_PrefabInstance: {fileID: 4513261483776677193}
  m_PrefabAsset: {fileID: 0}
